{
    "_type": "export",
    "__export_format": 4,
    "__export_date": "2021-11-09T01:05:54.277Z",
    "__export_source": "insomnia.desktop.app:v2021.5.3",
    "resources": [
        {
            "_id": "req_cd3e2eec4f7247f99cc33b4919a3085b",
            "parentId": "wrk_4cd8350e1cee45f1a717d65bf3e32933",
            "modified": 1636419624690,
            "created": 1636235214722,
            "url": "http://localhost:8000/registerRules",
            "name": "insert",
            "description": "",
            "method": "POST",
            "body": {
                "mimeType": "application/json",
                "text": "{\n\t\"intervals\": [\n\t\t{\n\t\t\t\"everyDay\": true,\n\t\t\t\"start\": \"21:21\",\n\t\t\t\"end\": \"22:28\"\n\t\t},\n\t\t{\n\t\t\t\"weekly\": {\n\t\t\t\t\"day\": [\n\t\t\t\t\t\"monday\",\n\t\t\t\t\t\"tuesday\"\n\t\t\t\t]\n\t\t\t},\n\t\t\t\"start\": \"10:00\",\n\t\t\t\"end\": \"11:30\"\n\t\t},\n\t\t{\n\t\t\t\"day\": \"12-11-2021\",\n\t\t\t\"start\": \"15:21\",\n\t\t\t\"end\": \"17:28\"\n\t\t}\n\t]\n}"
            },
            "parameters": [],
            "headers": [
                {
                    "name": "Content-Type",
                    "value": "application/json",
                    "id": "pair_a8e584ada9b34af9841b9b47a21f46e8"
                }
            ],
            "authentication": {},
            "metaSortKey": -1636235214723,
            "isPrivate": false,
            "settingStoreCookies": true,
            "settingSendCookies": true,
            "settingDisableRenderRequestBody": false,
            "settingEncodeUrl": true,
            "settingRebuildPath": true,
            "settingFollowRedirects": "global",
            "_type": "request"
        },
        {
            "_id": "wrk_4cd8350e1cee45f1a717d65bf3e32933",
            "parentId": null,
            "modified": 1634260207901,
            "created": 1634260207901,
            "name": "bla",
            "description": "",
            "scope": "design",
            "_type": "workspace"
        },
        {
            "_id": "req_04063fd5ea7b46a98e30fdd76927a53a",
            "parentId": "wrk_4cd8350e1cee45f1a717d65bf3e32933",
            "modified": 1636391294628,
            "created": 1636391287220,
            "url": "http://localhost:8000/listRules",
            "name": "getRules",
            "description": "",
            "method": "GET",
            "body": {
                "mimeType": "application/json",
                "text": ""
            },
            "parameters": [],
            "headers": [
                {
                    "name": "Content-Type",
                    "value": "application/json",
                    "id": "pair_a8e584ada9b34af9841b9b47a21f46e8"
                }
            ],
            "authentication": {},
            "metaSortKey": -1635249799345,
            "isPrivate": false,
            "settingStoreCookies": true,
            "settingSendCookies": true,
            "settingDisableRenderRequestBody": false,
            "settingEncodeUrl": true,
            "settingRebuildPath": true,
            "settingFollowRedirects": "global",
            "_type": "request"
        },
        {
            "_id": "req_8fe516728e4c402cb411fb66ab66d3cc",
            "parentId": "wrk_4cd8350e1cee45f1a717d65bf3e32933",
            "modified": 1636395492460,
            "created": 1636394655732,
            "url": "http://localhost:8000/deleteRule",
            "name": "deleteRule",
            "description": "",
            "method": "DELETE",
            "body": {
                "mimeType": "application/json",
                "text": "{\n\t\"everyDay\": true,\n\t\"start\": \"21:21\",\n\t\"end\": \"22:28\"\n}"
            },
            "parameters": [],
            "headers": [
                {
                    "name": "Content-Type",
                    "value": "application/json",
                    "id": "pair_24e5e91a43614dd18ebd774174be36bd"
                }
            ],
            "authentication": {},
            "metaSortKey": -1636394655733,
            "isPrivate": false,
            "settingStoreCookies": true,
            "settingSendCookies": true,
            "settingDisableRenderRequestBody": false,
            "settingEncodeUrl": true,
            "settingRebuildPath": true,
            "settingFollowRedirects": "global",
            "_type": "request"
        },
        {
            "_id": "req_72bfeb61315d482fa6a5a345b5be2c36",
            "parentId": "wrk_4cd8350e1cee45f1a717d65bf3e32933",
            "modified": 1636417314246,
            "created": 1636399027437,
            "url": "http://localhost:8000/listFreeTimes?initialDate=12-11-2021&finalDate=25-11-2021",
            "name": "listFreeTimes",
            "description": "",
            "method": "GET",
            "body": {
                "mimeType": "application/json",
                "text": ""
            },
            "parameters": [],
            "headers": [
                {
                    "name": "Content-Type",
                    "value": "application/json",
                    "id": "pair_cf04d5d2d6fb403abd01338d40a970ab"
                }
            ],
            "authentication": {},
            "metaSortKey": -1636399027437,
            "isPrivate": false,
            "settingStoreCookies": true,
            "settingSendCookies": true,
            "settingDisableRenderRequestBody": false,
            "settingEncodeUrl": true,
            "settingRebuildPath": true,
            "settingFollowRedirects": "global",
            "_type": "request"
        },
        {
            "_id": "env_44c7fa93b60a36e4f43b4b1e599544739f205f15",
            "parentId": "wrk_4cd8350e1cee45f1a717d65bf3e32933",
            "modified": 1636419933624,
            "created": 1634260207920,
            "name": "Base Environment",
            "data": {},
            "dataPropertyOrder": {},
            "color": null,
            "isPrivate": false,
            "metaSortKey": 1634260207920,
            "_type": "environment"
        },
        {
            "_id": "jar_44c7fa93b60a36e4f43b4b1e599544739f205f15",
            "parentId": "wrk_4cd8350e1cee45f1a717d65bf3e32933",
            "modified": 1634262467265,
            "created": 1634260207924,
            "name": "Default Jar",
            "_type": "cookie_jar"
        },
        {
            "_id": "spc_f7ec66608f7947d8813d273931369f5f",
            "parentId": "wrk_4cd8350e1cee45f1a717d65bf3e32933",
            "modified": 1636418138074,
            "created": 1634260207906,
            "fileName": "teste Cubo",
            "contents": "",
            "contentType": "yaml",
            "_type": "api_spec"
        }
    ]
}