{
	"components": {
		"examples": {},
		"headers": {},
		"parameters": {},
		"requestBodies": {},
		"responses": {},
		"schemas": {
			"Weekly": {
				"properties": {
					"days": {
						"items": {
							"type": "string"
						},
						"type": "array",
						"example": [
							"Sunday",
							"Monday",
							"Tuesday",
							"Wednesday",
							"Thursday",
							"Friday",
							"Saturday"
						]
					}
				},
				"required": [
					"days"
				],
				"type": "object",
				"additionalProperties": false
			},
			"Register": {
				"properties": {
					"everyDay": {
						"type": "boolean",
						"example": true
					},
					"weekly": {
						"$ref": "#/components/schemas/Weekly"
					},
					"day": {
						"type": "string",
						"example": "23-10-2020"
					},
					"start": {
						"type": "string",
						"example": "14:20"
					},
					"end": {
						"type": "string",
						"example": "16:50"
					},
					"is_active": {
						"type": "boolean",
						"example": true
					},
					"source": {
						"type": "string"
					}
				},
				"required": [
					"start",
					"end"
				],
				"type": "object",
				"additionalProperties": false
			},
			"IntervalRuleRegister": {
				"properties": {
					"intervals": {
						"items": {
							"$ref": "#/components/schemas/Register"
						},
						"type": "array"
					}
				},
				"required": [
					"intervals"
				],
				"type": "object",
				"additionalProperties": false
			},
			"Time": {
				"properties": {
					"start": {
						"type": "string",
						"example": "14:20"
					},
					"end": {
						"type": "string",
						"example": "16:50"
					}
				},
				"required": [
					"start",
					"end"
				],
				"type": "object",
				"additionalProperties": false
			},
			"FreeTimes": {
				"properties": {
					"day": {
						"type": "string"
					},
					"intervals": {
						"items": {
							"$ref": "#/components/schemas/Time"
						},
						"type": "array"
					}
				},
				"required": [
					"day",
					"intervals"
				],
				"type": "object",
				"additionalProperties": false
			}
		},
		"securitySchemes": {}
	},
	"info": {
		"title": "testecubo",
		"version": "1.0.0",
		"license": {
			"name": "ISC"
		},
		"contact": {}
	},
	"openapi": "3.0.0",
	"paths": {
		"/registerRules": {
			"post": {
				"operationId": "RegisterRulesController",
				"responses": {
					"200": {
						"description": "Ok",
						"content": {
							"application/json": {
								"schema": {
									"$ref": "#/components/schemas/IntervalRuleRegister"
								}
							}
						}
					}
				},
				"security": [],
				"parameters": [],
				"requestBody": {
					"required": true,
					"content": {
						"application/json": {
							"schema": {
								"$ref": "#/components/schemas/IntervalRuleRegister"
							}
						}
					}
				}
			}
		},
		"/listRules": {
			"get": {
				"operationId": "ListRulesController",
				"responses": {
					"200": {
						"description": "Ok",
						"content": {
							"application/json": {
								"schema": {
									"$ref": "#/components/schemas/IntervalRuleRegister"
								}
							}
						}
					}
				},
				"security": [],
				"parameters": []
			}
		},
		"/listFreeTimes": {
			"get": {
				"operationId": "ListFreeTimesController",
				"responses": {
					"200": {
						"description": "Ok",
						"content": {
							"application/json": {
								"schema": {
									"$ref": "#/components/schemas/FreeTimes"
								}
							}
						}
					}
				},
				"security": [],
				"parameters": [
					{
						"in": "query",
						"name": "initialDate",
						"required": true,
						"schema": {
							"type": "string"
						}
					},
					{
						"in": "query",
						"name": "finalDate",
						"required": true,
						"schema": {
							"type": "string"
						}
					}
				]
			}
		},
		"/deleteRule": {
			"delete": {
				"operationId": "DeleteRuleController",
				"responses": {
					"200": {
						"description": "Ok",
						"content": {
							"application/json": {
								"schema": {
									"type": "string"
								},
								"examples": {
									"Example 1": {
										"value": "Regra deletada"
									}
								}
							}
						}
					}
				},
				"security": [],
				"parameters": [],
				"requestBody": {
					"required": true,
					"content": {
						"application/json": {
							"schema": {
								"$ref": "#/components/schemas/Register"
							}
						}
					}
				}
			}
		}
	},
	"servers": [
		{
			"url": "/"
		}
	]
}